<?xml version="1.0" encoding="UTF-8" standalone="no"?>
<svg
   xmlns:dc="http://purl.org/dc/elements/1.1/"
   xmlns:cc="http://creativecommons.org/ns#"
   xmlns:rdf="http://www.w3.org/1999/02/22-rdf-syntax-ns#"
   xmlns:svg="http://www.w3.org/2000/svg"
   xmlns="http://www.w3.org/2000/svg"
   xmlns:sodipodi="http://sodipodi.sourceforge.net/DTD/sodipodi-0.dtd"
   xmlns:inkscape="http://www.inkscape.org/namespaces/inkscape"
   aria-hidden="true"
   focusable="false"
   data-prefix="fas"
   data-icon="utensils"
   class="svg-inline--fa fa-utensils fa-w-13"
   role="img"
   viewBox="0 0 512 512"
   version="1.1"
   id="svg4"
   sodipodi:docname="foot.svg"
   width="512"
   height="512"
   inkscape:version="0.92.5 (2060ec1f9f, 2020-04-08)"
   inkscape:export-filename="/home/allapow/Downloads/favicon.png"
   inkscape:export-xdpi="6"
   inkscape:export-ydpi="6">
  <metadata
     id="metadata10">
    <rdf:RDF>
      <cc:Work
         rdf:about="">
        <dc:format>image/svg+xml</dc:format>
        <dc:type
           rdf:resource="http://purl.org/dc/dcmitype/StillImage" />
        <dc:title></dc:title>
      </cc:Work>
    </rdf:RDF>
  </metadata>
  <defs
     id="defs8" />
  <sodipodi:namedview
     pagecolor="#ffffff"
     bordercolor="#666666"
     borderopacity="1"
     objecttolerance="10"
     gridtolerance="10"
     guidetolerance="10"
     inkscape:pageopacity="0"
     inkscape:pageshadow="2"
     inkscape:window-width="1366"
     inkscape:window-height="709"
     id="namedview6"
     showgrid="false"
     inkscape:zoom="0.4609375"
     inkscape:cx="-308.33898"
     inkscape:cy="256"
     inkscape:window-x="0"
     inkscape:window-y="25"
     inkscape:window-maximized="1"
     inkscape:current-layer="svg4" />
  <path
     d="m 253.9,15.2 c 0.8,4.7 16.1,94.5 16.1,128.8 0,52.3 -27.8,89.6 -68.9,104.6 L 214,486.7 c 0.7,13.7 -10.2,25.3 -24,25.3 h -64 c -13.7,0 -24.7,-11.5 -24,-25.3 L 114.9,248.6 C 73.7,233.6 46,196.2 46,144 46,109.6 61.3,19.9 62.1,15.2 65.3,-5.1 107.4,-5.4 110,16.3 v 141.2 c 1.3,3.4 15.1,3.2 16,0 1.4,-25.3 7.9,-139.2 8,-141.8 3.3,-20.8 44.7,-20.8 47.9,0 0.2,2.7 6.6,116.5 8,141.8 0.9,3.2 14.8,3.4 16,0 V 16.3 c 2.6,-21.6 44.8,-21.4 48,-1.1 z m 119.2,285.7 -15,185.1 c -1.2,14 9.9,26 23.9,26 h 56 c 13.3,0 24,-10.7 24,-24 V 24 C 462,10.8 451.3,0 438,0 355.5,0 216.6,178.5 373.1,300.9 Z"
     id="path2"
     inkscape:connector-curvature="0"
     style="fill:currentColor" />
</svg>
