{
    "@context": "https://schema.org",
    "@graph": [
        {
            "@type": "Recipe",
            "name": "Schoko Muffin",
            "description": "Schokoladiger Low Carb Schoko Muffin",
            "keywords": "Rezepte,Kuchen,Muffin,low carb",
            "recipeYield": [
                "6",
                "6 Muffins"
            ],
            "dateModified": "2023-05-23T08:56:48+02:00",
            "datePublished": "2023-05-23T06:30:01+02:00",
            "prepTime": "PT15M",
            "cookTime": "PT40M",
            "totalTime": "PT55M",
            "recipeIngredient": [
                "250 g weiche Butter",
                "200 g Zucker",
                "..."
            ],
            "recipeInstructions": [
                "lorem ipsum"
            ],
            "recipeCategory": "db.food_recipe_category.food_recipe_category_label",
            "image": {
                "@type": "ImageObject",
                "contentUrl": "https://bitkorn.de/foot/muffin.png",
                "description": "Kochrezept Bild - {{db.food_recipe.food_recipe_label}}"
            },
            "nutrition": {
                "@type": "NutritionInformation",
                "calories": "120 calories"
            }
        }
    ]
}
